﻿  Compiling CUDA source file proje.cu...
  
  E:\D\proje\said\gpu 2\proje1 - gpu-transpose\proje1>"C:\Program Files\NVIDIA GPU Computing Toolkit\CUDA\v8.0\bin\nvcc.exe" -gencode=arch=compute_20,code=\"sm_20,compute_20\" --use-local-env --cl-version 2013 -ccbin "C:\Program Files (x86)\Microsoft Visual Studio 12.0\VC\bin"  -I"C:\Program Files\NVIDIA GPU Computing Toolkit\CUDA\v8.0\include" -I"C:\Program Files\NVIDIA GPU Computing Toolkit\CUDA\v8.0\include"  -G   --keep-dir Debug -maxrregcount=0  --machine 32 --compile -cudart static  -g   -DWIN32 -D_DEBUG -D_CONSOLE -D_MBCS -Xcompiler "/EHsc /W3 /nologo /Od /FS /Zi /RTC1 /MDd " -o Debug\proje.cu.obj "E:\D\proje\said\gpu 2\proje1 - gpu-transpose\proje1\proje.cu" 
E:/D/proje/said/gpu 2/proje1 - gpu-transpose/proje1/proje.cu(48): warning : variable "stop" was set but never used
E:/D/proje/said/gpu 2/proje1 - gpu-transpose/proje1/proje.cu(48): warning : variable "stop" was set but never used
CUDACOMPILE : nvcc warning : The 'compute_20', 'sm_20', and 'sm_21' architectures are deprecated, and may be removed in a future release (Use -Wno-deprecated-gpu-targets to suppress warning).
  proje.cu
E:/D/proje/said/gpu 2/proje1 - gpu-transpose/proje1/proje.cu(59): warning C4244: 'argument' : conversion from 'time_t' to 'unsigned int', possible loss of data
E:/D/proje/said/gpu 2/proje1 - gpu-transpose/proje1/proje.cu(67): warning C4244: '=' : conversion from 'double' to 'int', possible loss of data
  proje1.vcxproj -> E:\D\proje\said\gpu 2\proje1 - gpu-transpose\Debug\proje1.exe
  copy "C:\Program Files\NVIDIA GPU Computing Toolkit\CUDA\v8.0\bin\cudart*.dll" "E:\D\proje\said\gpu 2\proje1 - gpu-transpose\Debug\"
  C:\Program Files\NVIDIA GPU Computing Toolkit\CUDA\v8.0\bin\cudart32_80.dll
  C:\Program Files\NVIDIA GPU Computing Toolkit\CUDA\v8.0\bin\cudart64_80.dll
          2 file(s) copied.
